3 Results – NYC 311 Service Requests Analysis
…
complaint_bucket_counts <- df_clean_final |>
  count(complaint_bucket, sort = TRUE)

complaint_bucket_borough <- df_clean_final |>
  group_by(borough, complaint_bucket) |>
  summarise(count = n(), .groups = "drop") |>
  group_by(borough) |>
  mutate(
    total_borough = sum(count),
    proportion = count / total_borough * 100
  ) |>
  ungroup()
print(complaint_bucket_borough)

# A tibble: 50 × 5
   borough complaint_bucket                       count total_borough proportion
   <chr>   <chr>                                  <int>         <int>      <dbl>
 1 BRONX   Buildings and Housing                 152187       1365908      11.1 
 2 BRONX   Heat/Water/Gas Issues                 280270       1365908      20.5 
 3 BRONX   Noise Related                         354903       1365908      26.0 
 4 BRONX   Others / Miscellaneous                105631       1365908       7.73
 5 BRONX   Pests and Animals                      14932       1365908       1.09
 6 BRONX   Public Safety / Crime / Quality of L…  32185       1365908       2.36
 7 BRONX   Sanitation and Waste                  107341       1365908       7.86
 8 BRONX   Street and Traffic Conditions          49349       1365908       3.61
 9 BRONX   Utilities and Power                    28127       1365908       2.06
10 BRONX   Vehicle and Parking                   240983       1365908      17.6 
# ℹ 40 more rows
…
